Creating informative maps
…
Choropleth Maps

When you have specific regions (e.g. countries, states, counties, census tracts,…) and a value associated with each region.

A choropleth map will color the entire region according to the value. For example, let’s consider state vaccination data from March 2021.

vaccines <- read_csv("https://joeroith.github.io/264_spring_2026/Data/vacc_Mar21.csv") 

vacc_mar13 <- vaccines |>
  filter(Date =="2021-03-13") |>
  select(State, Date, people_vaccinated_per100, share_doses_used, Governor)

vacc_mar13

# A tibble: 50 × 5
   State       Date       people_vaccinated_per100 share_doses_used Governor
   <chr>       <date>                        <dbl>            <dbl> <chr>   
 1 Alabama     2021-03-13                     17.2            0.671 R       
 2 Alaska      2021-03-13                     27.0            0.686 R       
 3 Arizona     2021-03-13                     21.5            0.821 R       
 4 Arkansas    2021-03-13                     19.2            0.705 R       
 5 California  2021-03-13                     20.3            0.726 D       
 6 Colorado    2021-03-13                     20.8            0.801 D       
 7 Connecticut 2021-03-13                     26.2            0.851 D       
 8 Delaware    2021-03-13                     20.2            0.753 D       
 9 Florida     2021-03-13                     20.1            0.766 R       
10 Georgia     2021-03-13                     15.2            0.674 R       
# ℹ 40 more rows
…
2

From https://leafletjs.com/examples/choropleth/us-states.js

3

Note that states has class sf in addition to the usual tbl and df

[1] "sf"         "tbl_df"     "tbl"        "data.frame"
Simple feature collection with 52 features and 3 fields
Geometry type: MULTIPOLYGON
Dimension:     XY
Bounding box:  xmin: -188.9049 ymin: 17.92956 xmax: -65.6268 ymax: 71.35163
Geodetic CRS:  WGS 84
# A tibble: 52 × 4
   id    name                  density                                  geometry
   <chr> <chr>                   <dbl>                        <MULTIPOLYGON [°]>
 1 01    Alabama                 94.6  (((-87.3593 35.00118, -85.60667 34.98475…
 2 02    Alaska                   1.26 (((-131.602 55.11798, -131.5692 55.28229…
 3 04    Arizona                 57.0  (((-109.0425 37.00026, -109.048 31.33163…
 4 05    Arkansas                56.4  (((-94.47384 36.50186, -90.15254 36.4963…
 5 06    California             242.   (((-123.2333 42.00619, -122.3789 42.0116…
 6 08    Colorado                49.3  (((-107.9197 41.00391, -105.729 40.99843…
 7 09    Connecticut            739.   (((-73.05353 42.03905, -71.79931 42.0226…
 8 10    Delaware               464.   (((-75.41409 39.80446, -75.5072 39.68396…
 9 11    District of Columbia 10065    (((-77.03526 38.99387, -76.90929 38.8952…
10 12    Florida                353.   (((-85.49714 30.99754, -85.00421 31.0030…
# ℹ 42 more rows
…
The following object is masked from 'package:readr':

    guess_encoding

library(polite)

session <- bow("https://en.wikipedia.org/wiki/List_of_states_and_territories_of_the_United_States_by_population_density", force = TRUE)

result <- scrape(session) |>
  html_nodes(css = "table") |> 
  html_table(header = TRUE, fill = TRUE)
density_table <- result[[1]]
density_table

# A tibble: 61 × 6
   Location               Density Density Population `Land area` `Land area`
   <chr>                  <chr>   <chr>   <chr>      <chr>       <chr>      
 1 Location               /mi2    /km2    Population mi2         km2        
 2 District of Columbia   11,131  4,297   678,972    61          158        
 3 New Jersey             1,263   488     9,290,842  7,354       19,047     
 4 Rhode Island           1,060   409     1,095,962  1,034       2,678      
 5 Puerto Rico            936     361     3,205,691  3,424       8,868      
 6 Massachusetts          898     347     7,001,399  7,800       20,202     
 7 Guam[4]                824     319     172,952    210         543        
 8 Connecticut            747     288     3,617,176  4,842       12,542     
 9 U.S. Virgin Islands[4] 737     284     98,750     134         348        
10 Maryland               637     246     6,180,253  9,707       25,142     
# ℹ 51 more rows

density_data <- density_table |>
  select(1, 2, 4, 5) |>
  filter(!row_number() == 1) |>
  rename(Land_area = `Land area`) |>
  mutate(state_name = str_to_lower(as.character(Location)),
         Density = parse_number(Density),
         Population = parse_number(Population),
         Land_area = parse_number(Land_area)) |>
  select(-Location)

density_data

# A tibble: 60 × 4
   Density Population Land_area state_name            
     <dbl>      <dbl>     <dbl> <chr>                 
 1   11131     678972        61 district of columbia  
 2    1263    9290842      7354 new jersey            
 3    1060    1095962      1034 rhode island          
 4     936    3205691      3424 puerto rico           
 5     898    7001399      7800 massachusetts         
 6     824     172952       210 guam[4]               
 7     747    3617176      4842 connecticut           
 8     737      98750       134 u.s. virgin islands[4]
 9     637    6180253      9707 maryland              
10     578      43915        76 american samoa[4]     
# ℹ 50 more rows
…
                             #   lack of internal spaces
print(polisci_data)   # can see trailing spaces

# A tibble: 50 × 3
   state                                        carfatal07 cook_index3
   <fct>                                             <dbl> <fct>      
 1 "Alaska                                    "       15.2 More Rep   
 2 "Alabama                                   "       25.9 More Rep   
 3 "Arkansas                                  "       23.7 More Rep   
 4 "Arizona                                   "       17.6 Even       
 5 "California                                "       11.7 More Dem   
 6 "Colorado                                  "       12.3 Even       
 7 "Connecticut                               "        8.7 More Dem   
 8 "Delaware                                  "       13.6 More Dem   
 9 "Florida                                   "       18.1 Even       
10 "Georgia                                   "       18.5 Even       
# ℹ 40 more rows
…
